Todos los caminos conducen a Microcentro :: Estación 🇷
…
Podemos notar que ciertos puntos presentan un color intenso. Esto nos permite sospechar que una misma dirección aparece varias veces en la base de datos. Tratemos de quedarnos con una sóla fila por dirección, intentando no perder información en el camino, como la superficie en mts2 del edificio (posible estimador de cantidad de personas por edificio a utilizar en un futuro):

Para ello, se crea una variable que contenga la información de la calle y el número en un mismo campo, y así poder identificar si se encuentra duplicada la fila.

Encontramos, efectivamente, que hay 247 direcciones duplicadas y 207 coordenadas duplicadas. Esto se debe, principalmente, a que en aquellos edificios donde el Estado dispone de más de un piso, se registra cada uno como un caso diferente.

Al mismo tiempo, evidenciamos que el campo de superficie se encuentra de forma agregada por edificio y no por piso:

## # A tibble: 259 × 8
##    codigo_del_inmueble calle_n…¹ depar…² super…³ longi…⁴ latitud dupli…⁵ dupli…⁶
##                  <dbl> <chr>     <chr>     <dbl>   <dbl>   <dbl>   <dbl>   <dbl>
##  1           200000196 Esmerald… Comuna…   1082.   -58.4   -34.6       2       1
##  2           200000390 Avenida … Comuna…   1092.   -58.4   -34.6       2       1
##  3           200000463 25 de Ma… Comuna…    382.   -58.4   -34.6       1       1
##  4           200000471 25 de Ma… Comuna…    382.   -58.4   -34.6       1       1
##  5           200000481 25 de Ma… Comuna…    382.   -58.4   -34.6       1       1
##  6           200000498 25 de Ma… Comuna…    382.   -58.4   -34.6       1       1
##  7           200000617 25 de Ma… Comuna…    299.   -58.4   -34.6       1       1
##  8           200000625 25 de Ma… Comuna…    299.   -58.4   -34.6       1       1
##  9           200000749 Av. 9 de… Comuna…   1750.   -58.4   -34.6       2       1
## 10           200001192 Av. Corr… Comuna…    337.   -58.4   -34.6       1       1
## # … with 249 more rows, and abbreviated variable names ¹​calle_numero,
## #   ²​departamento, ³​superficie_aproximada_m2, ⁴​longitud, ⁵​duplicados_dir,
## #   ⁶​duplicados_coord
…
